{
  "entries": [
    {
      "question": "First question",
      "answer": "Here is the first answer",
      "category_id": 1,
      "status": 2,
      "id": 1
    },
    {
      "question": "Marvellous question",
      "answer": "Here is marvellous answer, with some updates.",
      "category_id": 2,
      "status": 2,
      "id": 2
    },
    {
      "question": "Categorized question",
      "answer": "Here is changed answer",
      "category_id": 3,
      "status": 2,
      "id": 4
    },
    {
      "question": "Changed again",
      "answer": "With answer1",
      "category_id": 1,
      "status": 2,
      "id": 5
    },
    {
      "question": "Short questionasd",
      "answer": "Short answer",
      "category_id": 0,
      "status": 2,
      "id": 6
    },
    {
      "question": "Second published question",
      "answer": "Why Why?",
      "category_id": 4,
      "status": 1,
      "id": 7
    }
  ],
  "categories": [
    {
      "title": "General questions",
      "id": 1
    },
    {
      "title": "Getting started",
      "id": 2
    },
    {
      "title": "Added category",
      "id": 3
    },
    {
      "title": "Test category ",
      "id": 4
    }
  ]
}